tb/cache_ctrl_tb.vcd
$date
   Thu Mar 19 21:34:40 2026
$end
$version
  2023.1
$end
$timescale
  1ps
$end
$scope module cache_ctrl_tb $end
$var reg 1 ! clk $end
$var reg 1 " rst_n $end
$var reg 1 # core_req_ready $end
$var reg 1 $ core_req_valid $end
$var reg 69 % core_req_payload $end
$var reg 1 & core_resp_valid_i $end
$var reg 1 ' core_resp_valid $end
$var reg 32 ( core_resp_payload $end
$var reg 32 ) pass_count [31:0] $end
$var reg 32 * fail_count [31:0] $end
$var reg 32 + rdata [31:0] $end
$var reg 1 , got_resp $end
$var reg 32 - addr_a_w1 [31:0] $end
$var reg 32 . addr_tag_mismatch [31:0] $end
$scope module dut $end
$var wire 1 / clk $end
$var wire 1 0 rst_n $end
$var reg 1 # core_req_ready_o $end
$var wire 1 1 core_req_valid_i $end
$var reg 69 % core_req_payload_i $end
$var wire 1 2 core_resp_valid_i $end
$var reg 1 ' core_resp_valid_o $end
$var reg 32 ( core_resp_payload_o $end
$var reg 1 3 handshake $end
$var reg 1 4 hit $end
$var reg 1 5 cState $end
$var reg 1 6 cNextState $end
$var reg 69 7 saved_req $end
$var reg 4 8 req_offset [3:0] $end
$var reg 10 9 req_index [9:0] $end
$var reg 18 : req_tag [17:0] $end
$var reg 1 ; cmem_wen $end
$var reg 10 < cmem_waddr [9:0] $end
$var reg 148 = cmem_wdata [147:0] $end
$var reg 10 > cmem_raddr [9:0] $end
$var reg 148 ? cmem_rdata [147:0] $end
$var reg 148 @ rd_line $end
$scope module cmem $end
$var wire 1 / clk $end
$var wire 1 A pa_wen $end
$var wire 10 B pa_waddr [9:0] $end
$var wire 148 C pa_wdata [147:0] $end
$var wire 10 D pa_raddr [9:0] $end
$var reg 148 ? pa_rdata [147:0] $end
$upscope $end
$upscope $end
$scope task do_reset $end
$upscope $end
$scope task send_req $end
$upscope $end
$scope task backdoor_plant $end
$upscope $end
$scope task check $end
$upscope $end
$upscope $end
$enddefinitions $end
#0
$dumpvars
0!
0"
1#
0$
b0 %
0&
0'
b0 (
b0 )
b0 *
bx +
x,
bx -
bx .
0/
00
01
02
03
x4
05
06
b0 7
b0 8
b0 9
b0 :
0;
b0 <
b0 =
b0 >
bx ?
bx @
0A
b0 B
b0 C
b0 D
$end
#5000
1!
1/
#10000
0!
0/
#15000
1!
1/
#20000
0!
0/
#25000
1!
1/
#30000
0!
0/
#35000
1!
1/
#36000
1"
10
#40000
0!
0/
#45000
1!
1/
#50000
0!
0/
#55000
1!
1/
#56000
1$
b1000000000000000000000000000000000000000000001111 %
11
13
16
b100000000 >
b100000000 D
#60000
0!
0/
#65000
1!
0#
1/
03
15
x6
b1000000000000000000000000000000000000000000001111 7
b100000000 9
b100000000 <
b100000000 B
#66000
0$
b0 %
01
#70000
0!
0/
#75000
1!
x#
1/
x5
#80000
0!
0/
#85000
1!
1/
#90000
0!
0/
#95000
1!
1/
#100000
0!
0/
#105000
1!
1/
#110000
0!
0/
#115000
1!
1/
#116000
b1 )
b0 +
0,
#120000
0!
0/
#125000
1!
1/
#126000
1$
b100000000000000000001000000000000110111101010110110111110111011111111 %
11
x3
#130000
0!
0/
#135000
1!
1/
#136000
0$
b0 %
01
03
#140000
0!
0/
#145000
1!
1/
#150000
0!
0/
#155000
1!
1/
#160000
0!
0/
#165000
1!
1/
#170000
0!
0/
#175000
1!
1/
#180000
0!
0/
#185000
1!
1/
#186000
b10 )
#190000
0!
0/
#195000
1!
1/
#196000
1$
b1000000000000000000000000000000000000000000001111 %
11
x3
#200000
0!
0/
#205000
1!
1/
#206000
0$
b0 %
01
03
#210000
0!
0/
#215000
1!
1/
#220000
0!
0/
#225000
1!
1/
#230000
0!
0/
#235000
1!
1/
#240000
0!
0/
#245000
1!
1/
#250000
0!
0/
#255000
1!
1/
#256000
b1 *
b1000000000100 -
#260000
0!
0/
#265000
1!
1/
#266000
1$
b1000000000100000000000000000000000000000000001111 %
11
x3
#270000
0!
0/
#275000
1!
1/
#276000
0$
b0 %
01
03
#280000
0!
0/
#285000
1!
1/
#290000
0!
0/
#295000
1!
1/
#300000
0!
0/
#305000
1!
1/
#310000
0!
0/
#315000
1!
1/
#320000
0!
0/
#325000
1!
1/
#326000
b10 *
#330000
0!
0/
#335000
1!
1/
#336000
1$
b100000000000000000001000000000000000100100011010001010110011110001111 %
11
x3
#340000
0!
0/
#345000
1!
1/
#346000
0$
b0 %
01
03
#350000
0!
0/
#355000
1!
1/
#360000
0!
0/
#365000
1!
1/
#370000
0!
0/
#375000
1!
1/
#380000
0!
0/
#385000
1!
1/
#390000
0!
0/
#395000
1!
1/
#396000
b11 *
#400000
0!
0/
#405000
1!
1/
#406000
1$
b1000000000000000000000000000000000000000000001111 %
11
x3
#410000
0!
0/
#415000
1!
1/
#416000
0$
b0 %
01
03
#420000
0!
0/
#425000
1!
1/
#430000
0!
0/
#435000
1!
1/
#440000
0!
0/
#445000
1!
1/
#450000
0!
0/
#455000
1!
1/
#460000
0!
0/
#465000
1!
1/
#466000
b100 *
#470000
0!
0/
#475000
1!
1/
#476000
1$
b100000000000000000001000000000000000000000000000000000000111111110001 %
11
x3
#480000
0!
0/
#485000
1!
1/
#486000
0$
b0 %
01
03
#490000
0!
0/
#495000
1!
1/
#500000
0!
0/
#505000
1!
1/
#510000
0!
0/
#515000
1!
1/
#520000
0!
0/
#525000
1!
1/
#530000
0!
0/
#535000
1!
1/
#536000
b101 *
#540000
0!
0/
#545000
1!
1/
#546000
1$
b1000000000000000000000000000000000000000000001111 %
11
x3
#550000
0!
0/
#555000
1!
1/
#556000
0$
b0 %
01
03
#560000
0!
0/
#565000
1!
1/
#570000
0!
0/
#575000
1!
1/
#580000
0!
0/
#585000
1!
1/
#590000
0!
0/
#595000
1!
1/
#600000
0!
0/
#605000
1!
1/
#606000
b110 *
#610000
0!
0/
#615000
1!
1/
#616000
1$
b10000000000000000000000000000000000000000000001111 %
11
x3
#620000
0!
0/
#625000
1!
1/
#626000
0$
b0 %
01
03
#630000
0!
0/
#635000
1!
1/
#640000
0!
0/
#645000
1!
1/
#650000
0!
0/
#655000
1!
1/
#660000
0!
0/
#665000
1!
1/
#670000
0!
0/
#675000
1!
1/
#676000
b111 *
b101000000000000 .
#680000
0!
0/
#685000
1!
1/
#686000
1$
b101000000000000000000000000000000000000000000001111 %
11
x3
#690000
0!
0/
#695000
1!
1/
#696000
0$
b0 %
01
03
#700000
0!
0/
#705000
1!
1/
#710000
0!
0/
#715000
1!
1/
#720000
0!
0/
#725000
1!
1/
#730000
0!
0/
#735000
1!
1/
#740000
0!
0/
#745000
1!
1/
#746000
b11 )
